<?xml version="1.0" encoding="utf-8"?>
<!-- Generator: Adobe Illustrator 15.0.0, SVG Export Plug-In . SVG Version: 6.00 Build 0)  -->
<!DOCTYPE svg PUBLIC "-//W3C//DTD SVG 1.1//EN" "http://www.w3.org/Graphics/SVG/1.1/DTD/svg11.dtd">
<svg version="1.1" id="Livello_1" xmlns="http://www.w3.org/2000/svg" xmlns:xlink="http://www.w3.org/1999/xlink" x="0px" y="0px"
	 width="294.5px" height="31.5px" viewBox="0 0 294.5 31.5" enable-background="new 0 0 294.5 31.5" xml:space="preserve">
<g display="none">
	<path display="inline" fill="#4FAAE0" d="M186.184-97.465c-3.305-8.356-5.451-24.972-5.451-24.972l-0.043,0.071
		c-1.094-12.794-10.123-23.313-22.146-26.622c-2.596-2.637-5-5.465-7.177-8.461c-0.233,2.441-0.301,4.895-0.191,7.345
		c-3.414-1.736-6.522-4.072-9.147-6.862c-0.182,2.126,0.077,4.29,0.761,6.313c-3.002-0.966-5.794-2.582-8.125-4.701
		c-0.006,2.962,1.303,5.861,3.398,7.938c-9.774,4.402-16.787,13.833-17.768,25.003l-0.012-0.024c0,0,0.002,0.093,0.002,0.23
		c-0.063,0.811-0.125,1.634-0.125,2.463c0,0.25-1.934,13.013-5.326,22.279c-6.014,16.424-10.159,32.998-9.032,45.737
		c2.201,24.822,20.859,38.203,44.688,38.203c23.858,0,42.59-14.279,44.692-38.26C196.408-65.827,191.791-83.28,186.184-97.465"/>
	<path display="inline" fill="#F9F5F8" d="M179.496-99.192c-2.355-7.077-2.16-20.727-2.16-20.727h-2.201H150.5h-24.64h-2.197
		c0,0-0.712,13.65-3.072,20.727c-2.357,7.076-8.323,23.849-8.323,43.036c0,21.138,17.114,37.218,38.231,37.218
		c21.113,0,38.228-16.08,38.228-37.218C188.729-74.887,181.857-92.116,179.496-99.192"/>
	<path display="inline" fill="#4FAAE0" d="M115.043-90.114c-5.342,5.884-20.884,24.802-17.66,42.058
		c2.704,14.498,8.454,9.082,8.503,5.799c0.109-6.572,4.899-9.483,4.899-9.483L115.043-90.114z"/>
	<path display="inline" fill="#4FAAE0" d="M185.953-90.114c5.346,5.884,20.885,24.802,17.664,42.058
		c-2.703,14.498-8.453,9.082-8.506,5.799c-0.111-6.572-4.898-9.483-4.898-9.483L185.953-90.114z"/>
	<path display="inline" fill="#EC6F0A" d="M144.161-13.525c0-6.89-5.579-12.472-12.466-12.472c-6.889,0-12.47,5.582-12.47,12.472
		H144.161z"/>
	<path display="inline" fill="#EC6F0A" d="M181.773-13.525c0-6.89-5.58-12.472-12.471-12.472c-6.887,0-12.469,5.582-12.469,12.472
		H181.773z"/>
	<path display="inline" fill="#EC6F0A" d="M146.777-83.164c-1.464,6.861-4.631,22.695-4.589,23.532
		c0.057,1.424,4.873,8.585,8.317,15.073c3.671-7.377,8.314-12.739,8.314-12.739c-1.486-9.104-3.639-16.701-5.129-25.808
		L146.777-83.164z"/>
	<path display="inline" fill="#EC6F0A" d="M141.695-91.61c0,0,5.603,9.122,5.436,9.737c0,0,2.175-2.435,6.055,0.072
		c0,0,3.686-7.015,5.59-9.809C158.775-91.61,150.231-85.581,141.695-91.61"/>
	<path display="inline" fill="#EC6F0A" d="M177.801-111.769c0,13.284-12.223,24.049-27.3,24.049
		c-15.078,0-27.306-10.766-27.306-24.049c0-13.282,12.228-24.05,27.306-24.05C165.578-135.818,177.801-125.051,177.801-111.769"/>
	<path display="inline" fill="#4FAAE0" d="M177.801-117.243c0,13.281-12.223,24.049-27.3,24.049
		c-15.078,0-27.306-10.768-27.306-24.049c0-13.282,12.228-24.049,27.306-24.049C165.578-141.292,177.801-130.525,177.801-117.243"/>
	<path display="inline" fill="#D6D6D7" d="M156.156-115.301l-3.264-2.16c-0.662-0.43-1.527-0.649-2.392-0.649
		c-0.872,0-1.734,0.219-2.393,0.649l-3.267,2.16c-1.316,0.87-1.73,2.684-0.926,4.038l5.119,8.598
		c0.402,0.674,0.936,1.017,1.467,1.017c0.53,0,1.064-0.343,1.464-1.017l5.117-8.598
		C157.889-112.617,157.473-114.431,156.156-115.301"/>
	<path display="inline" fill="#FFFFFF" d="M172.49-125.68c0,3.913-3.172,7.083-7.078,7.083c-3.916,0-7.086-3.17-7.086-7.083
		c0-3.91,3.17-7.081,7.086-7.081C169.318-132.76,172.49-129.589,172.49-125.68"/>
	<path display="inline" fill="#FFFFFF" d="M142.672-125.68c0,3.913-3.171,7.083-7.077,7.083c-3.913,0-7.083-3.17-7.083-7.083
		c0-3.91,3.17-7.081,7.083-7.081C139.501-132.76,142.672-129.589,142.672-125.68"/>
	<path display="inline" fill="#44413D" d="M139.901-125.68c0,2.382-1.924,4.311-4.306,4.311s-4.318-1.929-4.318-4.311
		c0-2.379,1.936-4.309,4.318-4.309S139.901-128.059,139.901-125.68"/>
	<path display="inline" fill="#44413D" d="M169.717-125.68c0,2.382-1.93,4.311-4.305,4.311c-2.385,0-4.312-1.929-4.312-4.311
		c0-2.379,1.928-4.309,4.312-4.309C167.787-129.989,169.717-128.059,169.717-125.68"/>
	<path display="inline" fill="#FFFFFF" d="M138.342-127.445c0,0.976-0.786,1.765-1.763,1.765c-0.971,0-1.763-0.789-1.763-1.765
		c0-0.972,0.792-1.761,1.763-1.761C137.556-129.206,138.342-128.417,138.342-127.445"/>
	<path display="inline" fill="#FFFFFF" d="M168.182-127.445c0,0.976-0.789,1.765-1.77,1.765c-0.969,0-1.762-0.789-1.762-1.765
		c0-0.972,0.793-1.761,1.762-1.761C167.393-129.206,168.182-128.417,168.182-127.445"/>
</g>
<g>
	<rect x="3.25" y="1.646" fill="none" width="294.5" height="29.854"/>
	<path fill="#4FAAE0" d="M19.965,18.498c0.228,0.506,0.447,1.025,0.656,1.556c0.21-0.543,0.432-1.071,0.666-1.583
		c0.234-0.513,0.475-1.01,0.722-1.491l6.919-13.63c0.123-0.234,0.25-0.417,0.38-0.547c0.129-0.129,0.274-0.225,0.435-0.287
		c0.16-0.062,0.342-0.092,0.546-0.092c0.203,0,0.44,0,0.712,0h4.773v26.936H30.26V13.856c0-0.753,0.037-1.566,0.111-2.442
		l-7.141,13.857c-0.223,0.432-0.521,0.758-0.897,0.98c-0.377,0.221-0.805,0.332-1.286,0.332h-0.851c-0.481,0-0.91-0.111-1.286-0.332
		c-0.376-0.223-0.675-0.549-0.897-0.98l-7.178-13.875c0.049,0.432,0.086,0.859,0.111,1.285s0.037,0.817,0.037,1.175v15.503H5.471
		V2.424h4.773c0.271,0,0.509,0,0.712,0c0.204,0,0.385,0.03,0.546,0.092c0.16,0.062,0.305,0.158,0.435,0.287
		c0.13,0.13,0.256,0.312,0.379,0.547l6.938,13.686C19.5,17.504,19.737,17.992,19.965,18.498z"/>
	<path fill="#4FAAE0" d="M47.059,29.359h-6.29V2.404h6.29V29.359z"/>
	<path fill="#4FAAE0" d="M78.657,15.873c0,1.949-0.336,3.762-1.009,5.439c-0.672,1.677-1.618,3.135-2.84,4.375
		c-1.221,1.239-2.691,2.211-4.412,2.914c-1.721,0.702-3.629,1.054-5.726,1.054s-4.009-0.352-5.735-1.054
		c-1.727-0.703-3.203-1.675-4.431-2.914c-1.227-1.24-2.177-2.698-2.849-4.375c-0.673-1.678-1.008-3.49-1.008-5.439
		s0.335-3.762,1.008-5.439c0.672-1.677,1.622-3.133,2.849-4.365c1.228-1.233,2.704-2.202,4.431-2.904
		c1.727-0.703,3.639-1.055,5.735-1.055s4.005,0.354,5.726,1.063c1.721,0.709,3.191,1.681,4.412,2.913
		c1.222,1.234,2.168,2.689,2.84,4.366C78.321,12.13,78.657,13.937,78.657,15.873z M72.255,15.873c0-1.332-0.173-2.531-0.518-3.599
		c-0.346-1.066-0.842-1.97-1.489-2.71s-1.44-1.307-2.378-1.702c-0.938-0.395-2.004-0.592-3.2-0.592
		c-1.209,0-2.284,0.197-3.229,0.592c-0.943,0.396-1.738,0.962-2.386,1.702s-1.145,1.644-1.489,2.71
		c-0.346,1.067-0.519,2.267-0.519,3.599c0,1.344,0.173,2.55,0.519,3.617c0.345,1.066,0.842,1.97,1.489,2.709
		c0.647,0.74,1.442,1.305,2.386,1.693c0.944,0.389,2.02,0.583,3.229,0.583c1.196,0,2.263-0.194,3.2-0.583s1.73-0.953,2.378-1.693
		c0.647-0.739,1.144-1.643,1.489-2.709C72.083,18.423,72.255,17.217,72.255,15.873z"/>
	<path fill="#EC6F0A" d="M103.021,29.359h-1.462c-0.173,0-0.314-0.047-0.426-0.139c-0.11-0.093-0.197-0.213-0.259-0.361l-3.09-7.604
		H84.927l-3.07,7.604c-0.05,0.137-0.136,0.254-0.26,0.352c-0.123,0.1-0.271,0.148-0.443,0.148H79.71L90.422,3.182h1.887
		L103.021,29.359z M85.501,19.851H97.23L91.883,6.623c-0.086-0.21-0.173-0.447-0.259-0.713c-0.086-0.265-0.173-0.545-0.259-0.842
		c-0.087,0.297-0.173,0.577-0.259,0.842c-0.087,0.266-0.173,0.51-0.26,0.731L85.501,19.851z"/>
	<path fill="#EC6F0A" d="M116.414,13.246c-0.086,0.173-0.222,0.259-0.407,0.259c-0.136,0-0.312-0.077-0.526-0.231
		c-0.217-0.154-0.5-0.326-0.852-0.518s-0.783-0.363-1.295-0.518s-1.138-0.232-1.878-0.232c-0.666,0-1.273,0.096-1.822,0.287
		c-0.549,0.19-1.018,0.445-1.405,0.766c-0.389,0.319-0.691,0.691-0.907,1.115c-0.216,0.425-0.323,0.871-0.323,1.338
		c0,0.578,0.147,1.059,0.443,1.439c0.297,0.381,0.685,0.707,1.166,0.979c0.48,0.27,1.026,0.504,1.637,0.701
		c0.611,0.196,1.236,0.394,1.878,0.59c0.642,0.198,1.268,0.417,1.878,0.657c0.61,0.241,1.156,0.54,1.638,0.897
		c0.48,0.357,0.869,0.795,1.165,1.313s0.444,1.147,0.444,1.888c0,0.801-0.146,1.547-0.435,2.238c-0.29,0.69-0.71,1.289-1.259,1.794
		c-0.549,0.506-1.224,0.907-2.025,1.202c-0.802,0.297-1.715,0.444-2.738,0.444c-1.295,0-2.411-0.206-3.349-0.62
		c-0.938-0.412-1.775-0.952-2.516-1.618l0.426-0.629c0.062-0.099,0.129-0.173,0.203-0.222c0.074-0.05,0.179-0.074,0.314-0.074
		c0.16,0,0.357,0.099,0.592,0.296s0.54,0.41,0.916,0.638c0.376,0.229,0.845,0.441,1.406,0.639c0.561,0.197,1.255,0.296,2.081,0.296
		c0.777,0,1.462-0.108,2.054-0.323c0.592-0.217,1.085-0.51,1.479-0.879c0.395-0.37,0.694-0.805,0.897-1.305
		c0.204-0.5,0.306-1.027,0.306-1.582c0-0.616-0.148-1.128-0.444-1.535c-0.296-0.406-0.685-0.752-1.165-1.036
		c-0.481-0.283-1.027-0.524-1.638-0.722s-1.239-0.395-1.887-0.592s-1.276-0.413-1.888-0.647c-0.61-0.233-1.156-0.53-1.637-0.888
		c-0.481-0.357-0.869-0.793-1.166-1.305c-0.296-0.512-0.443-1.149-0.443-1.914c0-0.654,0.142-1.283,0.425-1.887
		c0.284-0.605,0.688-1.135,1.212-1.592c0.524-0.456,1.163-0.82,1.915-1.092s1.597-0.406,2.534-0.406
		c1.122,0,2.118,0.162,2.988,0.487c0.869,0.325,1.668,0.822,2.396,1.491L116.414,13.246z"/>
	<path fill="#EC6F0A" d="M132.324,13.246c-0.086,0.173-0.222,0.259-0.407,0.259c-0.136,0-0.312-0.077-0.526-0.231
		c-0.217-0.154-0.5-0.326-0.852-0.518s-0.783-0.363-1.295-0.518s-1.138-0.232-1.878-0.232c-0.666,0-1.273,0.096-1.822,0.287
		c-0.549,0.19-1.018,0.445-1.405,0.766c-0.389,0.319-0.691,0.691-0.907,1.115c-0.216,0.425-0.323,0.871-0.323,1.338
		c0,0.578,0.147,1.059,0.443,1.439c0.297,0.381,0.685,0.707,1.166,0.979c0.48,0.27,1.026,0.504,1.637,0.701
		c0.611,0.196,1.236,0.394,1.878,0.59c0.642,0.198,1.268,0.417,1.878,0.657c0.61,0.241,1.156,0.54,1.638,0.897
		c0.48,0.357,0.869,0.795,1.165,1.313s0.444,1.147,0.444,1.888c0,0.801-0.146,1.547-0.435,2.238c-0.29,0.69-0.71,1.289-1.259,1.794
		c-0.549,0.506-1.224,0.907-2.025,1.202c-0.802,0.297-1.715,0.444-2.738,0.444c-1.295,0-2.411-0.206-3.349-0.62
		c-0.938-0.412-1.775-0.952-2.516-1.618l0.426-0.629c0.062-0.099,0.129-0.173,0.203-0.222c0.074-0.05,0.179-0.074,0.314-0.074
		c0.16,0,0.357,0.099,0.592,0.296s0.54,0.41,0.916,0.638c0.376,0.229,0.845,0.441,1.406,0.639c0.561,0.197,1.255,0.296,2.081,0.296
		c0.777,0,1.462-0.108,2.054-0.323c0.592-0.217,1.085-0.51,1.479-0.879c0.395-0.37,0.694-0.805,0.897-1.305
		c0.204-0.5,0.306-1.027,0.306-1.582c0-0.616-0.148-1.128-0.444-1.535c-0.296-0.406-0.685-0.752-1.165-1.036
		c-0.481-0.283-1.027-0.524-1.638-0.722s-1.239-0.395-1.887-0.592s-1.276-0.413-1.888-0.647c-0.61-0.233-1.156-0.53-1.637-0.888
		c-0.481-0.357-0.869-0.793-1.166-1.305c-0.296-0.512-0.443-1.149-0.443-1.914c0-0.654,0.142-1.283,0.425-1.887
		c0.284-0.605,0.688-1.135,1.212-1.592c0.524-0.456,1.163-0.82,1.915-1.092s1.597-0.406,2.534-0.406
		c1.122,0,2.118,0.162,2.988,0.487c0.869,0.325,1.668,0.822,2.396,1.491L132.324,13.246z"/>
	<path fill="#EC6F0A" d="M141.149,4.606c0,0.222-0.047,0.429-0.139,0.62c-0.093,0.191-0.213,0.36-0.361,0.508
		c-0.147,0.148-0.32,0.266-0.518,0.352c-0.197,0.087-0.407,0.13-0.629,0.13c-0.223,0-0.433-0.043-0.629-0.13
		c-0.198-0.086-0.37-0.203-0.519-0.352c-0.147-0.147-0.266-0.316-0.352-0.508s-0.129-0.398-0.129-0.62s0.043-0.435,0.129-0.638
		c0.086-0.204,0.204-0.38,0.352-0.527c0.148-0.148,0.32-0.266,0.519-0.352c0.196-0.086,0.406-0.13,0.629-0.13
		c0.222,0,0.432,0.044,0.629,0.13s0.37,0.203,0.518,0.352c0.148,0.147,0.269,0.323,0.361,0.527
		C141.102,4.172,141.149,4.385,141.149,4.606z M140.372,10.951v18.408h-1.758V10.951H140.372z"/>
	<path fill="#EC6F0A" d="M159,13.412c-0.061,0.062-0.119,0.114-0.176,0.158c-0.055,0.043-0.133,0.064-0.23,0.064
		c-0.123,0-0.293-0.084-0.508-0.25c-0.217-0.166-0.504-0.349-0.861-0.546s-0.805-0.38-1.342-0.546
		c-0.535-0.166-1.186-0.25-1.951-0.25c-1.061,0-2.002,0.188-2.821,0.564c-0.82,0.377-1.512,0.916-2.072,1.619
		c-0.562,0.703-0.99,1.554-1.286,2.553s-0.443,2.121-0.443,3.367c0,1.295,0.15,2.441,0.453,3.441c0.302,0.998,0.73,1.84,1.285,2.525
		c0.556,0.684,1.228,1.205,2.017,1.562c0.79,0.357,1.665,0.537,2.627,0.537c0.889,0,1.631-0.105,2.229-0.314
		c0.598-0.21,1.092-0.438,1.48-0.686c0.389-0.246,0.697-0.475,0.926-0.684c0.227-0.21,0.41-0.314,0.545-0.314
		c0.16,0,0.283,0.062,0.371,0.185l0.48,0.592c-0.285,0.37-0.643,0.716-1.074,1.036s-0.918,0.599-1.461,0.832
		c-0.543,0.234-1.131,0.417-1.766,0.547c-0.637,0.129-1.299,0.193-1.99,0.193c-1.172,0-2.241-0.213-3.209-0.639
		c-0.968-0.425-1.801-1.041-2.497-1.85c-0.697-0.807-1.239-1.797-1.628-2.969s-0.583-2.504-0.583-3.996
		c0-1.406,0.186-2.688,0.555-3.848c0.37-1.16,0.91-2.158,1.619-2.998c0.709-0.838,1.578-1.488,2.608-1.951
		c1.029-0.463,2.211-0.693,3.543-0.693c1.195,0,2.26,0.191,3.191,0.573c0.93,0.382,1.74,0.9,2.432,1.554L159,13.412z"/>
	<path fill="#EC6F0A" d="M165.014,10.951v11.767c0,1.728,0.396,3.081,1.188,4.062c0.793,0.98,1.998,1.471,3.619,1.471
		c1.201,0,2.32-0.306,3.359-0.916c1.041-0.611,1.975-1.459,2.805-2.544V10.951h1.756v18.408h-0.967c-0.342,0-0.52-0.16-0.531-0.48
		l-0.166-2.738c-0.854,1.061-1.838,1.912-2.955,2.553c-1.119,0.642-2.363,0.962-3.734,0.962c-1.023,0-1.92-0.16-2.686-0.481
		c-0.766-0.32-1.402-0.783-1.908-1.387c-0.506-0.604-0.889-1.332-1.148-2.184c-0.26-0.851-0.389-1.812-0.389-2.886V10.951H165.014z"
		/>
	<path fill="#EC6F0A" d="M183.734,29.359V10.951h0.926c0.209,0,0.361,0.044,0.453,0.131c0.092,0.086,0.145,0.234,0.156,0.443
		l0.148,3.885c0.592-1.492,1.381-2.66,2.369-3.506c0.986-0.844,2.201-1.268,3.645-1.268c0.555,0,1.066,0.06,1.535,0.176
		c0.469,0.118,0.912,0.287,1.332,0.51l-0.24,1.221c-0.037,0.197-0.162,0.296-0.371,0.296c-0.074,0-0.178-0.024-0.314-0.074
		c-0.135-0.049-0.305-0.104-0.508-0.167c-0.205-0.061-0.453-0.116-0.75-0.166c-0.297-0.049-0.635-0.074-1.018-0.074
		c-1.395,0-2.537,0.432-3.432,1.295s-1.619,2.109-2.174,3.737v11.97H183.734z"/>
	<path fill="#EC6F0A" d="M209.246,29.359c-0.371,0-0.598-0.172-0.686-0.518l-0.258-2.35c-0.506,0.493-1.008,0.938-1.508,1.332
		s-1.021,0.728-1.562,0.998c-0.543,0.271-1.129,0.479-1.758,0.62s-1.32,0.213-2.072,0.213c-0.629,0-1.24-0.093-1.832-0.277
		s-1.115-0.469-1.572-0.851c-0.457-0.383-0.824-0.873-1.102-1.471c-0.277-0.599-0.416-1.316-0.416-2.156
		c0-0.776,0.223-1.498,0.666-2.164c0.445-0.666,1.139-1.246,2.082-1.738c0.943-0.494,2.158-0.889,3.645-1.185
		s3.271-0.469,5.355-0.519v-1.924c0-1.701-0.367-3.012-1.102-3.932c-0.732-0.918-1.822-1.377-3.264-1.377
		c-0.889,0-1.645,0.123-2.268,0.369c-0.623,0.247-1.15,0.518-1.582,0.814c-0.432,0.296-0.783,0.567-1.053,0.814
		c-0.271,0.246-0.5,0.369-0.686,0.369c-0.246,0-0.432-0.111-0.555-0.333l-0.314-0.536c0.961-0.963,1.973-1.689,3.033-2.184
		c1.061-0.492,2.264-0.74,3.607-0.74c0.986,0,1.852,0.158,2.59,0.473c0.74,0.314,1.354,0.765,1.842,1.35
		c0.486,0.586,0.854,1.295,1.1,2.128c0.248,0.833,0.371,1.761,0.371,2.784v11.988H209.246z M201.846,28.379
		c0.715,0,1.373-0.077,1.971-0.231c0.598-0.153,1.152-0.37,1.664-0.647s0.99-0.607,1.434-0.99c0.445-0.381,0.883-0.795,1.314-1.238
		v-4.792c-1.752,0.05-3.26,0.183-4.523,0.397c-1.264,0.217-2.307,0.509-3.127,0.879s-1.424,0.811-1.812,1.322
		s-0.582,1.096-0.582,1.748c0,0.617,0.102,1.15,0.305,1.602c0.203,0.449,0.473,0.82,0.805,1.109c0.332,0.29,0.721,0.503,1.166,0.639
		C200.902,28.311,201.365,28.379,201.846,28.379z"/>
	<path fill="#EC6F0A" d="M220.512,29.655c-1.246,0-2.213-0.345-2.904-1.036c-0.691-0.69-1.035-1.758-1.035-3.2v-12.58h-2.646
		c-0.135,0-0.246-0.037-0.332-0.11c-0.088-0.074-0.131-0.18-0.131-0.314v-0.686l3.146-0.222l0.438-6.586
		c0.014-0.11,0.059-0.21,0.139-0.296c0.078-0.086,0.186-0.129,0.32-0.129h0.822v7.029h5.791v1.313h-5.791v12.487
		c0,0.506,0.066,0.941,0.195,1.305s0.309,0.663,0.537,0.896c0.227,0.234,0.496,0.408,0.805,0.519
		c0.307,0.11,0.641,0.167,0.998,0.167c0.443,0,0.826-0.065,1.146-0.195c0.32-0.129,0.6-0.271,0.834-0.425
		c0.232-0.154,0.424-0.296,0.572-0.426s0.266-0.194,0.352-0.194c0.1,0,0.197,0.062,0.297,0.186l0.48,0.777
		c-0.469,0.518-1.064,0.934-1.785,1.248S221.289,29.655,220.512,29.655z"/>
	<path fill="#EC6F0A" d="M235.701,10.656c1.318,0,2.5,0.225,3.541,0.675c1.043,0.45,1.922,1.089,2.637,1.915
		s1.262,1.822,1.639,2.987c0.375,1.165,0.562,2.47,0.562,3.913s-0.188,2.744-0.562,3.903c-0.377,1.159-0.924,2.152-1.639,2.979
		c-0.715,0.827-1.594,1.462-2.637,1.905c-1.041,0.444-2.223,0.666-3.541,0.666c-1.32,0-2.502-0.222-3.543-0.666
		c-1.043-0.443-1.924-1.078-2.646-1.905c-0.721-0.826-1.27-1.819-1.646-2.979c-0.375-1.159-0.564-2.46-0.564-3.903
		s0.189-2.748,0.564-3.913c0.377-1.165,0.926-2.161,1.646-2.987c0.723-0.826,1.604-1.465,2.646-1.915
		C233.199,10.881,234.381,10.656,235.701,10.656z M235.701,28.213c1.098,0,2.055-0.188,2.875-0.564
		c0.82-0.377,1.506-0.916,2.055-1.619s0.959-1.551,1.23-2.543c0.271-0.993,0.406-2.106,0.406-3.34c0-1.221-0.135-2.331-0.406-3.33
		s-0.682-1.854-1.23-2.562s-1.234-1.254-2.055-1.637s-1.777-0.574-2.875-0.574c-1.1,0-2.057,0.191-2.877,0.574
		s-1.506,0.928-2.055,1.637s-0.961,1.563-1.238,2.562s-0.416,2.109-0.416,3.33c0,1.233,0.139,2.347,0.416,3.34
		c0.277,0.992,0.689,1.84,1.238,2.543s1.234,1.242,2.055,1.619C233.645,28.024,234.602,28.213,235.701,28.213z"/>
	<path fill="#EC6F0A" d="M248.705,29.359V10.951h0.926c0.209,0,0.361,0.044,0.453,0.131c0.092,0.086,0.145,0.234,0.156,0.443
		l0.148,3.885c0.592-1.492,1.381-2.66,2.369-3.506c0.986-0.844,2.201-1.268,3.645-1.268c0.555,0,1.066,0.06,1.535,0.176
		c0.469,0.118,0.912,0.287,1.332,0.51l-0.24,1.221c-0.037,0.197-0.162,0.296-0.371,0.296c-0.074,0-0.178-0.024-0.314-0.074
		c-0.135-0.049-0.305-0.104-0.508-0.167c-0.205-0.061-0.453-0.116-0.75-0.166c-0.297-0.049-0.635-0.074-1.018-0.074
		c-1.395,0-2.537,0.432-3.432,1.295s-1.619,2.109-2.174,3.737v11.97H248.705z"/>
	<path fill="#EC6F0A" d="M270.332,10.656c1.035,0,1.994,0.179,2.877,0.536c0.881,0.358,1.646,0.879,2.293,1.563
		c0.648,0.684,1.154,1.525,1.518,2.525c0.363,0.998,0.545,2.146,0.545,3.44c0,0.271-0.039,0.456-0.119,0.556
		c-0.08,0.099-0.207,0.147-0.379,0.147h-13.283v0.352c0,1.382,0.16,2.597,0.48,3.645s0.777,1.927,1.369,2.636
		c0.592,0.71,1.307,1.243,2.146,1.601c0.838,0.358,1.775,0.536,2.811,0.536c0.926,0,1.727-0.102,2.406-0.305
		c0.678-0.203,1.248-0.432,1.711-0.685s0.828-0.481,1.1-0.685s0.469-0.305,0.594-0.305c0.16,0,0.283,0.062,0.369,0.185l0.48,0.592
		c-0.295,0.37-0.688,0.716-1.174,1.036c-0.488,0.32-1.031,0.596-1.629,0.823c-0.598,0.229-1.238,0.41-1.924,0.546
		c-0.684,0.135-1.371,0.203-2.062,0.203c-1.258,0-2.404-0.219-3.441-0.656c-1.035-0.438-1.924-1.076-2.666-1.915
		s-1.316-1.865-1.721-3.08c-0.406-1.215-0.607-2.605-0.607-4.172c0-1.319,0.188-2.538,0.564-3.653
		c0.375-1.117,0.918-2.078,1.627-2.887c0.709-0.807,1.578-1.439,2.609-1.896C267.855,10.885,269.023,10.656,270.332,10.656z
		 M270.359,11.969c-0.949,0-1.799,0.148-2.551,0.445c-0.75,0.295-1.4,0.721-1.947,1.275c-0.549,0.556-0.992,1.221-1.33,1.998
		c-0.34,0.777-0.564,1.646-0.674,2.609h12.117c0-0.987-0.137-1.872-0.406-2.655c-0.271-0.783-0.654-1.446-1.146-1.989
		c-0.492-0.542-1.084-0.959-1.773-1.248C271.959,12.114,271.195,11.969,270.359,11.969z"/>
	<path fill="#EC6F0A" d="M280.09,28.781c0-0.094,0.018-0.184,0.053-0.27c0.035-0.085,0.084-0.158,0.146-0.221
		s0.135-0.113,0.219-0.15c0.082-0.037,0.172-0.057,0.273-0.057c0.094,0,0.184,0.02,0.27,0.057c0.084,0.037,0.158,0.088,0.221,0.15
		s0.113,0.136,0.15,0.221c0.037,0.086,0.057,0.176,0.057,0.27c0,0.101-0.02,0.191-0.057,0.274s-0.088,0.155-0.15,0.218
		s-0.137,0.111-0.221,0.146c-0.086,0.034-0.176,0.052-0.27,0.052c-0.195,0-0.359-0.065-0.492-0.198S280.09,28.977,280.09,28.781z"/>
	<path fill="#EC6F0A" d="M284.719,19.324c0,0.09-0.02,0.174-0.057,0.252c-0.037,0.077-0.086,0.146-0.146,0.205
		c-0.059,0.061-0.129,0.108-0.209,0.143c-0.08,0.035-0.166,0.053-0.256,0.053s-0.174-0.018-0.254-0.053
		c-0.08-0.034-0.15-0.082-0.211-0.143c-0.061-0.06-0.107-0.128-0.143-0.205c-0.035-0.078-0.053-0.162-0.053-0.252
		s0.018-0.176,0.053-0.259s0.082-0.153,0.143-0.214c0.061-0.06,0.131-0.107,0.211-0.143s0.164-0.053,0.254-0.053
		s0.176,0.018,0.256,0.053s0.15,0.083,0.209,0.143c0.061,0.061,0.109,0.131,0.146,0.214S284.719,19.234,284.719,19.324z
		 M284.404,21.896v7.463h-0.713v-7.463H284.404z"/>
	<path fill="#EC6F0A" d="M289.076,29.479c-0.506,0-0.898-0.14-1.178-0.42s-0.42-0.713-0.42-1.298v-5.1h-1.072
		c-0.055,0-0.1-0.016-0.135-0.045c-0.035-0.03-0.053-0.072-0.053-0.128v-0.277l1.275-0.09l0.178-2.671
		c0.004-0.045,0.023-0.084,0.055-0.119c0.033-0.035,0.076-0.053,0.131-0.053h0.334v2.85h2.348v0.533h-2.348v5.062
		c0,0.205,0.025,0.381,0.078,0.528s0.125,0.269,0.219,0.364c0.092,0.095,0.201,0.164,0.326,0.209
		c0.125,0.046,0.26,0.068,0.404,0.068c0.18,0,0.334-0.026,0.465-0.079c0.131-0.052,0.242-0.11,0.338-0.173
		c0.094-0.062,0.172-0.119,0.232-0.172s0.107-0.078,0.143-0.078c0.039,0,0.08,0.024,0.119,0.074l0.195,0.314
		c-0.189,0.211-0.432,0.379-0.723,0.507C289.695,29.416,289.391,29.479,289.076,29.479z"/>
</g>
</svg>
